{
    "basename": "asr-intent_01-c1f267a",
    "cmd": "lfortran --show-asr --no-color {infile} -o {outfile}",
    "infile": "tests/../integration_tests/intent_01.f90",
    "infile_hash": "ecbce2d4b01a09bee24ec92ce8be335f75903e746d23a667806bf264",
    "outfile": null,
    "outfile_hash": null,
    "stdout": "asr-intent_01-c1f267a.stdout",
    "stdout_hash": "c69d571e970ad156e2e358950cad7637f7b0c5e503a09e92b17c03a1",
    "stderr": null,
    "stderr_hash": null,
    "returncode": 0
}