{
    "basename": "asr-callback_01-21b53de",
    "cmd": "lfortran --show-asr --no-color {infile} -o {outfile}",
    "infile": "tests/../integration_tests/callback_01.f90",
    "infile_hash": "d2c103564620acefc4245ff5eb5dfe84478276bead512800823259da",
    "outfile": null,
    "outfile_hash": null,
    "stdout": "asr-callback_01-21b53de.stdout",
    "stdout_hash": "37766ce034d6355960c885d9d4574b8eda5c96c3c605ccf885e23e00",
    "stderr": null,
    "stderr_hash": null,
    "returncode": 0
}