{
    "basename": "asr-interface_04-9570e2b",
    "cmd": "lfortran --show-asr --no-color {infile} -o {outfile}",
    "infile": "tests/../integration_tests/interface_04.f90",
    "infile_hash": "14368b65a65dffde9d8d8ed4bc45203d43a32e68739474d9f18fff8b",
    "outfile": null,
    "outfile_hash": null,
    "stdout": "asr-interface_04-9570e2b.stdout",
    "stdout_hash": "66385421ebaa1a9b267c4d57e40600cd4860e835e0f1f03fc89948e2",
    "stderr": null,
    "stderr_hash": null,
    "returncode": 0
}