{
    "basename": "asr-arrays_op_5-9ff5901",
    "cmd": "lfortran --show-asr --no-color {infile} -o {outfile}",
    "infile": "tests/../integration_tests/arrays_op_5.f90",
    "infile_hash": "f3c014105f55ed7ec4a86da773076b204ada3cd5c8903ecbf25af3c4",
    "outfile": null,
    "outfile_hash": null,
    "stdout": "asr-arrays_op_5-9ff5901.stdout",
    "stdout_hash": "ab3dd29d232d0678ad1186f413281001b14a836d5b82273a90c13980",
    "stderr": null,
    "stderr_hash": null,
    "returncode": 0
}