{
    "basename": "asr-modules_15b-09f8335",
    "cmd": "lfortran --show-asr --no-color {infile} -o {outfile}",
    "infile": "tests/../integration_tests/modules_15b.f90",
    "infile_hash": "ae2828ca20e1b41ce5e2377bb061185d6041b1767aea83026fd268fc",
    "outfile": null,
    "outfile_hash": null,
    "stdout": "asr-modules_15b-09f8335.stdout",
    "stdout_hash": "af8f629bef72d0b58dc961282cce410bc0cbbc6f0e2e6b6b411540ab",
    "stderr": null,
    "stderr_hash": null,
    "returncode": 0
}