{
    "basename": "asr_preprocess-cpp5-4cb2070",
    "cmd": "lfortran --cpp --show-asr --no-color {infile} -o {outfile}",
    "infile": "tests/errors/cpp5.f90",
    "infile_hash": "832e876e424e62ff86e263b3f4b23c6915146d7945e1ffab15b38295",
    "outfile": null,
    "outfile_hash": null,
    "stdout": null,
    "stdout_hash": null,
    "stderr": "asr_preprocess-cpp5-4cb2070.stderr",
    "stderr_hash": "ea9eb48358ba9e73a2f608a62bb51f1a086a617bd8365c65d97f534c",
    "returncode": 2
}