{
    "basename": "ast-if_04-7f1b69d",
    "cmd": "lfortran --show-ast --no-color {infile} -o {outfile}",
    "infile": "tests/../integration_tests/if_04.f90",
    "infile_hash": "dc3029f2df7281746bd116d435ee39913201c693d801c2e53aca3886",
    "outfile": null,
    "outfile_hash": null,
    "stdout": "ast-if_04-7f1b69d.stdout",
    "stdout_hash": "4b8045f08aefb0330fac4171b51492717dbd85f54c76b1e498fbc0fd",
    "stderr": null,
    "stderr_hash": null,
    "returncode": 0
}