{
    "basename": "ast-forall1-50096b8",
    "cmd": "lfortran --show-ast --no-color {infile} -o {outfile}",
    "infile": "tests/forall1.f90",
    "infile_hash": "c0bc2a81b478acca60180152012de1e4011f235afde816cb91804fb9",
    "outfile": null,
    "outfile_hash": null,
    "stdout": "ast-forall1-50096b8.stdout",
    "stdout_hash": "f38cc7451c27f0648fcc0c4ff3c5863ddbcf06dbe96da88ef3568826",
    "stderr": null,
    "stderr_hash": null,
    "returncode": 0
}