#include <iostream>
#include <string>
#include <vector>
#include <Kokkos_Core.hpp>

template <typename T>
Kokkos::View<T*> from_std_vector(const std::vector<T> &v)
{
    Kokkos::View<T*> r("r", v.size());
    for (size_t i=0; i < v.size(); i++) {
        r(i) = v[i];
    }
    return r;
}

bool allocated(const Kokkos::View<const int*> &x)
{
    bool allocated;
    return allocated;
}

int lbound(const Kokkos::View<const int*> &x, int dim)
{
    int lbound;
    return lbound;
}

int max(int a, int b)
{
    int max;
    return max;
}

int maxval(const Kokkos::View<const int*> &x)
{
    int maxval;
    return maxval;
}

int min(int a, int b)
{
    int min;
    return min;
}

int minval(const Kokkos::View<const int*> &x)
{
    int minval;
    return minval;
}

float real(const Kokkos::View<const int*> &x, int kind)
{
    float real;
    return real;
}

int sum(const Kokkos::View<const int*> &x)
{
    int sum;
    return sum;
}

float tiny(const Kokkos::View<const int*> &x)
{
    float tiny;
    return tiny;
}

int ubound(const Kokkos::View<const int*> &x, int dim)
{
    int ubound;
    return ubound;
}

namespace {
void triad(const Kokkos::View<const float*> &a, const Kokkos::View<const float*> &b, float scalar, const Kokkos::View<float*> &c)
{
    int n;
    n = a.extent(0);
    Kokkos::parallel_for(Kokkos::RangePolicy<Kokkos::DefaultExecutionSpace>(1, n+1), KOKKOS_LAMBDA(const long i) {
        c[i-1] = a[i-1] + scalar*b[i-1];
    });
}


void main2() {
        Kokkos::View<float[10000]> a("a");
        Kokkos::View<float[10000]> b("b");
        Kokkos::View<float[10000]> c("c");
        int i;
        int nsize;
        float scalar;
        scalar = 10;
        nsize = a.extent(0);
        Kokkos::parallel_for(Kokkos::RangePolicy<Kokkos::DefaultExecutionSpace>(1, nsize+1), KOKKOS_LAMBDA(const long i) {
            a[i-1] = 5;
            b[i-1] = 5;
        });
        triad(a, b, scalar, c);
        std::cout << "End Stream Triad" << std::endl;
}

}
int main(int argc, char* argv[])
{
    Kokkos::initialize(argc, argv);
    main2();
    Kokkos::finalize();
    return 0;
}
