{
    "basename": "llvm-recursion_03-dc86ba7",
    "cmd": "lfortran --show-llvm {infile} -o {outfile}",
    "infile": "tests/../integration_tests/recursion_03.f90",
    "infile_hash": "881acca05bce092c2e11b2449f2c44822e43c11ff3598af3a1fc5a48",
    "outfile": null,
    "outfile_hash": null,
    "stdout": "llvm-recursion_03-dc86ba7.stdout",
    "stdout_hash": "18d85660fa003f82d641a614fe5939ee42899712b40e261a15a8ea0e",
    "stderr": null,
    "stderr_hash": null,
    "returncode": 0
}