{
    "basename": "llvm-global_scope5-aff13a1",
    "cmd": "lfortran --show-llvm {infile} -o {outfile}",
    "infile": "tests/global_scope5.f90",
    "infile_hash": "63e512d3fe5d83aa6195002b9c31ddc77e1a93ac37df38989f782ed7",
    "outfile": null,
    "outfile_hash": null,
    "stdout": "llvm-global_scope5-aff13a1.stdout",
    "stdout_hash": "1806a6729c163cfdfc41d4b64f96505b4c9ab85718288b8a71035215",
    "stderr": null,
    "stderr_hash": null,
    "returncode": 0
}