{
    "basename": "llvm-types_03-aad4f88",
    "cmd": "lfortran --show-llvm {infile} -o {outfile}",
    "infile": "tests/../integration_tests/types_03.f90",
    "infile_hash": "388683b8609d91d174ceb8c24787c982bf1ea22d342e94d44457b861",
    "outfile": null,
    "outfile_hash": null,
    "stdout": "llvm-types_03-aad4f88.stdout",
    "stdout_hash": "5150cf86358b4f9ffd3720f4d7bca056dd509bcfca44a817a0c7782c",
    "stderr": null,
    "stderr_hash": null,
    "returncode": 0
}