{
    "basename": "llvm-global_scope8-7b2dfc5",
    "cmd": "lfortran --show-llvm {infile} -o {outfile}",
    "infile": "tests/global_scope8.f90",
    "infile_hash": "899df30dee274279a699110fb9af2afad0b826c0abc886f9e2460627",
    "outfile": null,
    "outfile_hash": null,
    "stdout": "llvm-global_scope8-7b2dfc5.stdout",
    "stdout_hash": "b6c3718d3f43ac2875a37f8179b98d4ce2634717200e733e3c0ca360",
    "stderr": null,
    "stderr_hash": null,
    "returncode": 0
}